-------------------------------------------------------------------------------
Test set: com.javatechie.k8s.SpringbootK8sDemoApplicationTests
-------------------------------------------------------------------------------
Tests run: 1, Failures: 0, Errors: 0, Skipped: 0, Time elapsed: 9.38 s - in com.javatechie.k8s.SpringbootK8sDemoApplicationTests
